[{
    "id":0,
    "question":"What is Your Company Name?",
    "answer":""

},
{
    "id":1,
    "question":"What is Your Company Registered Number?",
    "answer":""
    
},
{
    "id":2,
    "question":"What is Your Company Registered Address?",
    "answer":""
    
},
{
    "id":3,
    "question":"What is Your Full Name and Title?",
    "answer":""
    
},
{
    "id":5,
    "question":"When Were You Born?",
    "answer":""
    
},
{
    "id":6,
    "question":"What is Your Home Address?",
    "answer":""
    
},
{
    "id":7,
    "question":"What is the Best Number To Contact You?",
    "answer":""
    
},
{
    "id":8,
    "question":" Do you have a preffered e-mail address you'd like us to contact you?",
    "answer":""
    
},
{
    "id":9,
    "question":"Have you had any CCJ's or the Defaults in the last 6 years?",
    "answer":""
    
},
{
    "id":10,
    "question":"Have you ever been declared bankrupt?",
    "answer":""
    
},
{
    "id":11,
    "question":"What is the property Address?",
    "answer":""
    
},
{
    "id":12,
    "question":"What is the current estimated valuation of the property?",
    "answer":""
    
},
{
    "id":13,
    "question":"Please select the best description of property below",
    "answer":""
    
},
{
    "id":14,
    "question":"",
    "answer":""
    
},
{
    "id":15,
    "question":"What is Your Company Registered Number?",
    "answer":""
    
},
{
    "id":16,
    "question":"What is Your Company Registered Number?",
    "answer":""
    
},
{
    "id":17,
    "question":"What is Your Company Registered Number?",
    "answer":""
    
},
{
    "id":18,
    "question":"What is Your Company Registered Number?",
    "answer":""
    
},
{
    "id":19,
    "question":"What is Your Company Registered Number?",
    "answer":""
    
},
{
    "id":20,
    "question":"What is Your Company Registered Number?",
    "answer":""
    
},
{
    "id":21,
    "question":"What is Your Company Registered Number?",
    "answer":""
    
},
{
    "id":22,
    "question":"What is Your Company Registered Number?",
    "answer":""
    
},
{
    "id":23,
    "question":"What is Your Company Registered Number?",
    "answer":""
    
},
{
    "id":24,
    "question":"What is Your Company Registered Number?",
    "answer":""
    
},
{
    "id":25,
    "question":"What is Your Company Registered Number?",
    "answer":""
    
},
{
    "id":26,
    "question":"What is Your Company Registered Number?",
    "answer":""
    
},
{
    "id":27,
    "question":"What is Your Company Registered Number?",
    "answer":""
    
},
{
    "id":28,
    "question":"What is Your Company Registered Number?",
    "answer":""
    
},
{
    "id":29,
    "question":"What is Your Company Registered Number?",
    "answer":""
    
},
{
    "id":30,
    "question":"What is Your Company Registered Number?",
    "answer":""
    
},
{
    "id":31,
    "question":"What is Your Company Registered Number?",
    "answer":""
    
},
{
    "id":32,
    "question":"What is Your Company Registered Number?",
    "answer":""
    
},
{
    "id":33,
    "question":"What is Your Company Registered Number?",
    "answer":""
    
},
{
    "id":1,
    "question":"What is Your Company Registered Number?",
    "answer":""
    
},
{
    "id":1,
    "question":"What is Your Company Registered Number?",
    "answer":""
    
},
{
    "id":1,
    "question":"What is Your Company Registered Number?",
    "answer":""
    
},
{
    "id":1,
    "question":"What is Your Company Registered Number?",
    "answer":""
    
},
{
    "id":1,
    "question":"What is Your Company Registered Number?",
    "answer":""
    
},
{
    "id":1,
    "question":"What is Your Company Registered Number?",
    "answer":""
    
},
{
    "id":1,
    "question":"What is Your Company Registered Number?",
    "answer":""
    
},
{
    "id":1,
    "question":"What is Your Company Registered Number?",
    "answer":""
    
},
{
    "id":1,
    "question":"What is Your Company Registered Number?",
    "answer":""
    
},
{
    "id":1,
    "question":"What is Your Company Registered Number?",
    "answer":""
    
},
{
    "id":1,
    "question":"What is Your Company Registered Number?",
    "answer":""
    
},
{
    "id":1,
    "question":"What is Your Company Registered Number?",
    "answer":""
    
},
{
    "id":1,
    "question":"What is Your Company Registered Number?",
    "answer":""
    
},

{
    "id":1,
    "question":"What is Your Company Registered Number?",
    "answer":""
    
},
{
    "id":1,
    "question":"What is Your Company Registered Number?",
    "answer":""
    
},
{
    "id":1,
    "question":"What is Your Company Registered Number?",
    "answer":""
    
}
]