<?xml version="1.0" encoding="UTF-8" standalone="no"?>
<svg width="38px" height="38px" viewBox="0 0 38 38" version="1.1" xmlns="http://www.w3.org/2000/svg" xmlns:xlink="http://www.w3.org/1999/xlink">
    <!-- Generator: Sketch 39.1 (31720) - http://www.bohemiancoding.com/sketch -->
    <title>Artboard Copy</title>
    <desc>Created with Sketch.</desc>
    <defs></defs>
    <g id="Page-1" stroke="none" stroke-width="1" fill="none" fill-rule="evenodd">
        <g id="Artboard-Copy" fill="#576BAA">
            <path d="M5.50655273,0 C2.74151001,0 0.5,2.24839222 0.5,5.00655273 L0.5,32.3736434 C0.5,37.8977276 3.66774833,39.2081342 7.56891244,35.3069701 L35.8069701,7.06891244 C39.7110226,3.1648599 38.4010444,0 32.8736434,0 L5.50655273,0 Z" id="Path-Copy" transform="translate(19.277343, 18.776255) scale(-1, 1) translate(-19.277343, -18.776255) "></path>
        </g>
    </g>
</svg>