<svg class="color-theme overlay-svg" xmlns="http://www.w3.org/2000/svg" version="1.1" x="0" y="0" viewBox="0 0 52.1 81.8" enable-background="new 0 0 52.137 81.828" xml:space="preserve">
                <polyline vector-effect="non-scaling-stroke" style="fill: pink; stroke-width: 2; stroke-linecap: round; stroke-linejoin: round; stroke-miterlimit: 10;" points="32.2 64.6 1 64.6 1 1 38.2 1 48.6 12.2 48.6 52.3 "></polyline>
                <polyline vector-effect="non-scaling-stroke" style="fill: pink; stroke-width: 2; stroke-linecap: round; stroke-linejoin: round; stroke-miterlimit: 10;" points="38.1 1.2 38.1 12.3 48.5 12.3 "></polyline>
                <polyline vector-effect="non-scaling-stroke" style="fill: pink; stroke-width: 2; stroke-linecap: round; stroke-linejoin: round; stroke-miterlimit: 10;" points="32.2 64.7 26.5 77.5 31.8 76 34.4 80.8 40.8 66.1 "></polyline>
                <polyline vector-effect="non-scaling-stroke" style="fill: pink; stroke-width: 2; stroke-linecap: round; stroke-linejoin: round; stroke-miterlimit: 10;" points="45.9 62.9 51.1 74.6 45.9 73.1 43.2 77.9 39.5 69.1 "></polyline>
                <path vector-effect="non-scaling-stroke" style="fill: pink; stroke-width: 2; stroke-linecap: round; stroke-linejoin: round; stroke-miterlimit: 10;" d="M49.1 55.2c0 6-4.9 10.8-10.8 10.8 -6 0-10.8-4.8-10.8-10.8 0-6 4.9-10.8 10.8-10.8C44.3 44.4 49.1 49.3 49.1 55.2z"></path>
                <line vector-effect="non-scaling-stroke" style="fill: pink; stroke-width: 2; stroke-linecap: round; stroke-linejoin: round; stroke-miterlimit: 10;" x1="9.8" y1="19.1" x2="39.9" y2="19.1"></line>
                <line vector-effect="non-scaling-stroke" style="fill: pink; stroke-width: 2; stroke-linecap: round; stroke-linejoin: round; stroke-miterlimit: 10;" x1="9.8" y1="27.8" x2="39.9" y2="27.8"></line>
                <line vector-effect="non-scaling-stroke" style="fill: pink; stroke-width: 2; stroke-linecap: round; stroke-linejoin: round; stroke-miterlimit: 10;" x1="9.8" y1="36.9" x2="39.9" y2="36.9"></line>
             </svg>